********************* Vue instance options ***************
2. data object:   store data to be used, it is not reactive
3. methods: functions of the vuew instance
4. computed: dependent propierties , EVERYTHING stored in computed object can be use like you use a property in the data object, es decir llamar funcion=  sin usar parentes "myFuncion", no "myFuncion()"

5 watch: execute code upon data object property changes (you must link the property what watch will be listenings), synchronically ( you can not make a http call for example)
******************************************

if and else statement in html: both must be one next to other and with the same type (<section/> , <div/>, etc)



***************** create project based on cue cli**************
Install vue cli (global): sudo npm i -g vue-cli  

en donde se creara la carpeta del proyecto, correr: 
vue init webpack-simple [nombre de la carpeta del proyecto]

Una vez creado el proyecto [nombre de la carpeta del proyecto], correr en la carpeta: npm i

***************************


**************run project and watch changes********
npm run dev
********************************************************


*************buld to production**************
npm run build
********************************************************